…
## Data wrangling using dplyr

There's loads of functions within tidyverse. We will go through a couple of them together, using one of the default datasets in R, namely gapminder. This includes yearly observations per country in the world, of many variables as you'll see. Then we'll use what we learned on an epidemiological dataset to figure out the source of an outbreak!


```r
library(gapminder)
gapminder
```

```
## # A tibble: 1,704 × 6
##    country     continent  year lifeExp      pop gdpPercap
##    <fct>       <fct>     <int>   <dbl>    <int>     <dbl>
##  1 Afghanistan Asia       1952    28.8  8425333      779.
##  2 Afghanistan Asia       1957    30.3  9240934      821.
##  3 Afghanistan Asia       1962    32.0 10267083      853.
##  4 Afghanistan Asia       1967    34.0 11537966      836.
##  5 Afghanistan Asia       1972    36.1 13079460      740.
##  6 Afghanistan Asia       1977    38.4 14880372      786.
##  7 Afghanistan Asia       1982    39.9 12881816      978.
##  8 Afghanistan Asia       1987    40.8 13867957      852.
##  9 Afghanistan Asia       1992    41.7 16317921      649.
## 10 Afghanistan Asia       1997    41.8 22227415      635.
## # ℹ 1,694 more rows
```
…
**filter**

The filter function is a very powerful function that allows us to only keep the rows in our dataframe that fulfill a certain condition. See chapter ... for more conditional logic in R, but here's a couple of examples


```r
gapminder %>% filter(year == 2007)
```

```
## # A tibble: 142 × 6
##    country     continent  year lifeExp       pop gdpPercap
##    <fct>       <fct>     <int>   <dbl>     <int>     <dbl>
##  1 Afghanistan Asia       2007    43.8  31889923      975.
##  2 Albania     Europe     2007    76.4   3600523     5937.
##  3 Algeria     Africa     2007    72.3  33333216     6223.
##  4 Angola      Africa     2007    42.7  12420476     4797.
##  5 Argentina   Americas   2007    75.3  40301927    12779.
##  6 Australia   Oceania    2007    81.2  20434176    34435.
##  7 Austria     Europe     2007    79.8   8199783    36126.
##  8 Bahrain     Asia       2007    75.6    708573    29796.
##  9 Bangladesh  Asia       2007    64.1 150448339     1391.
## 10 Belgium     Europe     2007    79.4  10392226    33693.
## # ℹ 132 more rows
```

```r
gapminder %>% filter(continent %in% c('Oceania', 'Africa'))
```

```
## # A tibble: 648 × 6
##    country continent  year lifeExp      pop gdpPercap
##    <fct>   <fct>     <int>   <dbl>    <int>     <dbl>
##  1 Algeria Africa     1952    43.1  9279525     2449.
##  2 Algeria Africa     1957    45.7 10270856     3014.
##  3 Algeria Africa     1962    48.3 11000948     2551.
##  4 Algeria Africa     1967    51.4 12760499     3247.
##  5 Algeria Africa     1972    54.5 14760787     4183.
##  6 Algeria Africa     1977    58.0 17152804     4910.
##  7 Algeria Africa     1982    61.4 20033753     5745.
##  8 Algeria Africa     1987    65.8 23254956     5681.
##  9 Algeria Africa     1992    67.7 26298373     5023.
## 10 Algeria Africa     1997    69.2 29072015     4797.
## # ℹ 638 more rows
```

```r
gapminder %>% filter(pop > 100000000)
```

```
## # A tibble: 77 × 6
##    country    continent  year lifeExp       pop gdpPercap
##    <fct>      <fct>     <int>   <dbl>     <int>     <dbl>
##  1 Bangladesh Asia       1987    52.8 103764241      752.
##  2 Bangladesh Asia       1992    56.0 113704579      838.
##  3 Bangladesh Asia       1997    59.4 123315288      973.
##  4 Bangladesh Asia       2002    62.0 135656790     1136.
##  5 Bangladesh Asia       2007    64.1 150448339     1391.
##  6 Brazil     Americas   1972    59.5 100840058     4986.
##  7 Brazil     Americas   1977    61.5 114313951     6660.
##  8 Brazil     Americas   1982    63.3 128962939     7031.
##  9 Brazil     Americas   1987    65.2 142938076     7807.
## 10 Brazil     Americas   1992    67.1 155975974     6950.
## # ℹ 67 more rows
```
**mutate**

This is another very powerful and useful function. With mutate, we can change values in a dataframe. We can even change values in a dataframe that fulfill a certain condition. We do this by 
`mutate(column_name = ...)`

if column_name doesn't exist in the dataframe yet, a new column with this name is created.


```r
gapminder_pop_log = gapminder %>% mutate(pop_log = log(pop))
gapminder_pop_log
```

```
## # A tibble: 1,704 × 7
##    country     continent  year lifeExp      pop gdpPercap pop_log
##    <fct>       <fct>     <int>   <dbl>    <int>     <dbl>   <dbl>
##  1 Afghanistan Asia       1952    28.8  8425333      779.    15.9
##  2 Afghanistan Asia       1957    30.3  9240934      821.    16.0
##  3 Afghanistan Asia       1962    32.0 10267083      853.    16.1
##  4 Afghanistan Asia       1967    34.0 11537966      836.    16.3
##  5 Afghanistan Asia       1972    36.1 13079460      740.    16.4
##  6 Afghanistan Asia       1977    38.4 14880372      786.    16.5
##  7 Afghanistan Asia       1982    39.9 12881816      978.    16.4
##  8 Afghanistan Asia       1987    40.8 13867957      852.    16.4
##  9 Afghanistan Asia       1992    41.7 16317921      649.    16.6
## 10 Afghanistan Asia       1997    41.8 22227415      635.    16.9
## # ℹ 1,694 more rows
```
…
