…
**mutate**

This is another very powerful and useful function. With mutate, we can change values in a dataframe. We can even change values in a dataframe that fulfill a certain condition. We do this by 
`mutate(column_name = ...)`

if column_name doesn't exist in the dataframe yet, a new column with this name is created.


```r
gapminder_pop_log = gapminder %>% mutate(pop_log = log(pop))
gapminder_pop_log
```

```
## # A tibble: 1,704 × 7
##    country     continent  year lifeExp      pop gdpPercap pop_log
##    <fct>       <fct>     <int>   <dbl>    <int>     <dbl>   <dbl>
##  1 Afghanistan Asia       1952    28.8  8425333      779.    15.9
##  2 Afghanistan Asia       1957    30.3  9240934      821.    16.0
##  3 Afghanistan Asia       1962    32.0 10267083      853.    16.1
##  4 Afghanistan Asia       1967    34.0 11537966      836.    16.3
##  5 Afghanistan Asia       1972    36.1 13079460      740.    16.4
##  6 Afghanistan Asia       1977    38.4 14880372      786.    16.5
##  7 Afghanistan Asia       1982    39.9 12881816      978.    16.4
##  8 Afghanistan Asia       1987    40.8 13867957      852.    16.4
##  9 Afghanistan Asia       1992    41.7 16317921      649.    16.6
## 10 Afghanistan Asia       1997    41.8 22227415      635.    16.9
## # ℹ 1,694 more rows
```
…
**group_by**

The function `group_by()` allows us to group rows in a dataframe based on one or more columns. This does not yet change the dataframe values but rather sets up a grouped structure that works especially well with functions like `summarise()`.


```r
# group the data by continent
gapminder %>% group_by(continent)
```

```
## # A tibble: 1,704 × 6
## # Groups:   continent [5]
##    country     continent  year lifeExp      pop gdpPercap
##    <fct>       <fct>     <int>   <dbl>    <int>     <dbl>
##  1 Afghanistan Asia       1952    28.8  8425333      779.
##  2 Afghanistan Asia       1957    30.3  9240934      821.
##  3 Afghanistan Asia       1962    32.0 10267083      853.
##  4 Afghanistan Asia       1967    34.0 11537966      836.
##  5 Afghanistan Asia       1972    36.1 13079460      740.
##  6 Afghanistan Asia       1977    38.4 14880372      786.
##  7 Afghanistan Asia       1982    39.9 12881816      978.
##  8 Afghanistan Asia       1987    40.8 13867957      852.
##  9 Afghanistan Asia       1992    41.7 16317921      649.
## 10 Afghanistan Asia       1997    41.8 22227415      635.
## # ℹ 1,694 more rows
```
…
