Chapter 5 Introduction to the Tidyverse | Epidemiology in R: A Hands-on Approach
…
print("Life expectancy analysis by continent, decade, and GDP category:")

## [1] "Life expectancy analysis by continent, decade, and GDP category:"

life_exp_analysis

## # A tibble: 21 × 6
##    continent decade gdp_category avg_life_exp countries  total_pop
##    <fct>     <chr>  <chr>               <dbl>     <int>      <dbl>
##  1 Africa    1990s  Medium GDP           61.9        28  381335877
##  2 Africa    1990s  Low GDP              50.3        74 1019466696
##  3 Africa    2000s  Medium GDP           59.7        27  632430409
##  4 Africa    2000s  High GDP             58.5         7   13862646
##  5 Africa    2000s  Low GDP              51.5        70 1116970553
##  6 Americas  1990s  High GDP             75.1        10  689423253
##  7 Americas  1990s  Medium GDP           69.9        38  833511034
##  8 Americas  2000s  High GDP             76.3        15  976865109
##  9 Americas  2000s  Medium GDP           72.3        33  755668372
## 10 Asia      1990s  High GDP             75.0        21  479574324
## # ℹ 11 more rows
…
